[
  {
    "name": "publication 1",
    "dateCreation": "12/07/2018",
    "statut": "actif",
    "datas": {
      "video": {
        "lien": "Aperçu de la video",
        "statut": "validé"
      },
      "image": {
        "lien": "Aperçu de l'image",
        "statut": "validé"
      },
      "audio": {
        "lien": "Aperçu de l'audio",
        "statut": "validé"
      },
      "texte": {
        "lien": "affichage du texte",
        "statut": "rejeté"
      }
    }
  },
  {
    "name": "publication 2",
    "dateCreation": "13/07/2018",
    "statut": "actif",
    "datas": {
      "video": {
        "lien": "Aperçu de la video",
        "statut": "actif"
      },
      "image": {
        "lien": "Aperçu de l'image",
        "statut": "validé"
      },
      "audio": {
        "lien": "Aperçu de l'audio",
        "statut": "validé"
      },
      "texte": {
        "lien": "affichage du texte",
        "statut": "actif"
      }
    }
  },
  {
    "name": "publication 3",
    "dateCreation": "14/07/2018",
    "statut": "actif",
    "datas": {
      "video": {
        "lien": "Aperçu de la video",
        "statut": "actif"
      },
      "image": {
        "lien": "Aperçu de l'image",
        "statut": "actif"
      },
      "audio": {
        "lien": "Aperçu de l'audio",
        "statut": "actif"
      },
      "texte": {
        "lien": "affichage du texte",
        "statut": "actif"
      }
    }
  },
  {
    "name": "publication 4",
    "dateCreation": "15/07/2018",
    "statut": "actif",
    "datas": {
      "video": {
        "lien": "Aperçu de la video",
        "statut": "actif"
      },
      "image": {
        "lien": "Aperçu de l'image",
        "statut": "actif"
      },
      "audio": {
        "lien": "Aperçu de l'audio",
        "statut": "actif"
      },
      "texte": {
        "lien": "affichage du texte",
        "statut": "actif"
      }
    }
  },
  {
    "name": "publication 5",
    "dateCreation": "16/07/2018",
    "statut": "actif",
    "datas": {
      "video": {
        "lien": "Aperçu de la video",
        "statut": "actif"
      },
      "image": {
        "lien": "Aperçu de l'image",
        "statut": "actif"
      },
      "audio": {
        "lien": "Aperçu de l'audio",
        "statut": "actif"
      },
      "texte": {
        "lien": "affichage du texte",
        "statut": "actif"
      }
    }
  }
]