{
  "css": [
    "node_modules/font-awesome/css/font-awesome.min.css",
    "node_modules/font-awesome/css/font-awesome.css.map",
    "node_modules/simple-line-icons/css/simple-line-icons.css",
    "node_modules/animate.css/animate.min.css",
    "node_modules/angular-material/angular-material.css",
    "node_modules/angular-toastr/dist/angular-toastr.css",
    "node_modules/angular-wizard/dist/angular-wizard.css",
    "bower_components/ng-notify/dist/ng-notify.min.css",
    "bower_components/angular-ui-select/dist/select.css",
    "bower_components/dropzone/dist/dropzone.css",
    "bower_components/ladda/dist/ladda-themeless.min.css",
    "bower_components/textAngular/dist/textAngular.css",
    "bower_components/angularjs-slider/dist/rzslider.css",
    "bower_components/slick-carousel/slick/slick.css",
    "bower_components/slick-carousel/slick/slick-theme.css",
    "bower_components/v-button/dist/v-button.min.css",
    "bower_components/v-modal/dist/v-modal.min.css",
    "bower_components/sweetalert2/dist/sweetalert2.min.css",
    "bower_components/angular-xeditable/dist/css/xeditable.min.css",
    "bower_components/bootstrap-daterangepicker/daterangepicker.css"
  ],
  "fonts": [
    "node_modules/font-awesome/fonts/**",
    "node_modules/simple-line-icons/fonts/**"
  ],
  "js": [
    "node_modules/jquery/dist/jquery.min.js",
    "node_modules/popper.js/dist/umd/popper.min.js",
    "node_modules/bootstrap/dist/js/bootstrap.min.js",
    "node_modules/angular/angular.min.js",
    "node_modules/angular-animate/angular-animate.min.js",
    "node_modules/angular-breadcrumb/dist/angular-breadcrumb.min.js",
    "node_modules/angular-daterangepicker/js/angular-daterangepicker.min.js",
    "node_modules/angular-loading-bar/build/loading-bar.min.js",
    "node_modules/angular-sanitize/angular-sanitize.min.js",
    "node_modules/@uirouter/angularjs/release/angular-ui-router.min.js",
    "node_modules/angular-toastr/dist/angular-toastr.tpls.min.js",
    "node_modules/angular-translate/dist/angular-translate.min.js",
    "node_modules/angular-ui-calendar/src/calendar.js",
    "node_modules/angular-ui-mask/dist/mask.min.js",
    "node_modules/bootstrap/dist/js/bootstrap.min.js",
    "node_modules/fullcalendar/dist/fullcalendar.min.js",
    "node_modules/fullcalendar/dist/gcal.min.js",
    "node_modules/jquery/dist/jquery.min.js",
    "node_modules/jquery/dist/jquery.min.map",
    "node_modules/oclazyload/dist/ocLazyLoad.min.js",
    "node_modules/popper.js/dist/umd/popper.min.js",
    "node_modules/popper.js/dist/umd/popper.min.js.map",
    "node_modules/angular-sanitize/angular-sanitize.min.js",
    "node_modules/@uirouter/angularjs/release/angular-ui-router.min.js",
    "node_modules/angular-material/angular-material.js",
    "node_modules/angular-toastr/dist/angular-toastr.tpls.js",
    "node_modules/angular-wizard/dist/angular-wizard.js",
    "bower_components/jquery-backstretch/jquery.backstretch.min.js",
    "bower_components/angular-ui-mask/dist/mask.js",
    "bower_components/angular-messages/angular-messages.js",
    "bower_components/ng-notify/dist/ng-notify.min.js",
    "bower_components/angular-ui-select/dist/select.js",
    "bower_components/dropzone/dist/dropzone.js",
    "bower_components/ng-lodash/build/ng-lodash.js",
    "node_modules/jstree/dist/jstree.min.js",
    "node_modules/ng-js-tree/dist/ngJsTree.min.js",
    "bower_components/ladda/dist/spin.min.js",
    "bower_components/ladda/dist/ladda.min.js",
    "bower_components/angular-ladda/dist/angular-ladda.min.js",
    "bower_components/lodash/dist/lodash.js",
    "bower_components/moment/min/moment.min.js",
    "bower_components/moment/locale/fr.js",
    "bower_components/ngmap/build/scripts/ng-map.min.js",
    "bower_components/angular-bootstrap/ui-bootstrap-tpls.js",
    "bower_components/textAngular/dist/textAngular-rangy.min.js",
    "bower_components/textAngular/dist/textAngular-sanitize.min.js",
    "bower_components/textAngular/dist/textAngular.min.js",
    "bower_components/angularjs-slider/dist/rzslider.min.js",
    "bower_components/ckeditor/ckeditor.js",
    "bower_components/angular-ckeditor/angular-ckeditor.min.js",
    "bower_components/angular-ckeditor-placeholder/angular-ckeditor-placeholder.min.js",
    "bower_components/angular-dynamic-number/release/dynamic-number.min.js",
    "bower_components/angular-cookies/angular-cookies.min.js",
    "bower_components/slick-carousel/slick/slick.min.js",
    "bower_components/v-button/dist/v-button.min.js",
    "bower_components/sweetalert2/dist/sweetalert2.min.js",
    "bower_components/slick-carousel/slick/slick.min.js",
    "bower_components/v-modal/dist/v-modal.min.js",
    "bower_components/angular-xeditable/dist/js/xeditable.min.js",
    "node_modules/angular-local-storage/dist/angular-local-storage.min.js",
    "node_modules/ng-file-upload/dist/ng-file-upload-shim.min.js",
    "node_modules/ng-file-upload/dist/ng-file-upload.min.js",
    "node_modules/angular-permission/dist/angular-permission.min.js",
    "node_modules/angular-permission/dist/angular-permission-ui.min.js",
    "node_modules/angular-acl/angular-acl.min.js",
    "bower_components/angular-filter/dist/angular-filter.min.js",
    "bower_components/bootstrap-daterangepicker/daterangepicker.js",
    "bower_components/angular-daterangepicker/js/angular-daterangepicker.min.js",
    "node_modules/ng-file-upload/dist/ng-file-upload-shim.min.js",
    "node_modules/ng-file-upload/dist/ng-file-upload.min.js"
  ]
}
